{
    "author": "CL, Hsiao",
    "description": "This is a sample book created by gitbook",
    "extension": null,
    "generator": "site",
    "links": {
      "sidebar":{
        "你的部落格" : "https://medium.com/as-a-med-student"
      }
    },
  
    "language": "zh",
    "plugins": [
          "-lunr",
          "-search",
          "search-pro",
          "chapter-fold",
          "expandable-chapters",
          "splitter",
          "back-to-top-button",
          "hide-element",
          "chapter-numbering",
          "code",
          "popup",
          "youtubex",
          "click-reveal",
          "auto-scroll-table",
          "pageview-count",
          "ancre-navigation",
          "flexible-alerts",
          "js-sequence-diagram-full@>=0.3.1",
          "mermaid"
        ],
    "pluginsConfig": {
      "hide-element": {
          "elements": [".gitbook-link"]
      }
    }
  }
  